<?xml version="1.0" encoding="utf-8"?>
<!-- Generator: Adobe Illustrator 16.0.0, SVG Export Plug-In . SVG Version: 6.00 Build 0)  -->
<!DOCTYPE svg PUBLIC "-//W3C//DTD SVG 1.1//EN" "http://www.w3.org/Graphics/SVG/1.1/DTD/svg11.dtd">
<svg version="1.1" id="Capa_1" xmlns="http://www.w3.org/2000/svg" xmlns:xlink="http://www.w3.org/1999/xlink" x="0px" y="0px"
	 width="612.002px" height="476px" viewBox="0 0 612.002 476" enable-background="new 0 0 612.002 476" xml:space="preserve">
<g>
	<g>
		<path d="M52.515,192.412c6.451,10.548,18.935,12.939,30.317,12.939c2.255,0,4.458-0.099,6.572-0.24
			c-13.301,31.858-20.497,65.957-20.497,98.061c0,42.465,10.438,73.499,31.911,94.877c31.297,31.162,81.277,37.143,140.5,38.111
			c1.568,0.729,3.215,1.416,4.957,2.066c18.153,6.761,42.112,7.676,63.161,7.676c21.047,0,45.008-0.913,63.16-7.676
			c1.742-0.65,3.39-1.335,4.951-2.066c59.223-0.97,109.201-6.954,140.5-38.116c21.474-21.379,31.91-52.413,31.91-94.877
			c0-32.105-7.19-66.199-20.492-98.057c12.777,0.854,29.121-0.089,36.837-12.708c10.558-17.267-4.417-41.048-21.757-68.59
			c-9.844-15.635-20.019-31.806-24.039-44.672c-4.694-15.047-15.893-25.485-32.389-30.168c-20.76-5.896-45.274-1.61-62.185,3.021
			c-15.84,4.338-30.878,10.673-40.749,16.994c-24.531-8.43-50.012-12.699-75.775-12.699c-25.77,0-51.244,4.27-75.781,12.699
			c-9.866-6.321-24.909-12.657-40.749-16.994c-16.911-4.631-41.425-8.917-62.185-3.021c-16.49,4.684-27.688,15.121-32.388,30.175
			c-4.013,12.866-14.193,29.037-24.039,44.672C56.931,151.359,41.957,175.146,52.515,192.412z M137.448,72.747
			c11.749-3.336,29.576-2.213,48.905,3.084c17.655,4.836,32.079,11.875,37.208,16.328l5.507,4.783l10.396-3.811
			c22.931-8.156,45.81-12.122,69.943-12.122c24.127,0,47.006,3.965,69.938,12.122l10.402,3.811l5.508-4.783
			c5.13-4.453,19.555-11.492,37.209-16.328c19.334-5.297,37.155-6.42,48.905-3.084c11.073,3.142,14.177,9.358,15.547,13.758
			c4.972,15.945,16.023,33.505,26.714,50.483c6.556,10.417,12.749,20.257,16.895,28.711c4.187,8.539,4.595,12.368,4.568,13.659
			c-1.273,0.577-5.522,1.888-16.405,0.918c-5.518-0.494-11.178-1.375-16.838-2.611l-0.613-0.137
			c-56.562-12.661-99.193-58.44-99.608-58.892l-9.105,8.345l-9.11,8.345c1.553,1.694,31.585,34.076,76.604,54.254
			c9.42,4.222,19.489,7.909,30.101,10.668c16.233,32.823,25.135,69.161,25.135,102.925c0,35.556-8.057,60.863-24.636,77.368
			c-21.033,20.943-55.924,27.889-98.398,30.102c1.475-4.091,2.262-8.192,2.592-12.09l0.173,0.013
			c0.111-1.79,2.36-44.443-27.494-99.469c-6.494-11.965-9.451-23.199-8.87-33.572c6.151,4.966,14.188,7.889,22.947,7.889h0.005
			c2.918,0,5.854-0.331,8.728-0.986c19.533-4.448,32.074-22.763,27.959-40.827c-3.446-15.116-17.488-25.675-34.151-25.675
			c-2.917,0-5.854,0.33-8.729,0.986c-5.896,1.343-11.151,3.959-15.505,7.443l-0.057-0.08c-1.269,0.918-12.605,9.431-19.915,25.56
			c-6.788,14.97-11.276,39.449,5.869,71.051c2.528,4.657,4.789,9.205,6.819,13.616c-15.95-10.266-34.312-15.789-53.143-15.789
			c-18.73,0-36.999,5.466-52.886,15.624c2.318-5.045,4.621-9.561,6.73-13.448c17.146-31.608,12.656-56.078,5.874-71.05
			c-7.312-16.128-18.646-24.641-19.915-25.559l-0.058,0.078c-4.359-3.482-9.609-6.095-15.504-7.443
			c-2.875-0.656-5.812-0.986-8.728-0.986c-16.664,0-30.709,10.558-34.15,25.673c-4.113,18.065,8.428,36.376,27.957,40.83
			c2.874,0.655,5.811,0.984,8.728,0.984c8.765,0,16.806-2.926,22.958-7.892c0.583,10.369-2.381,21.604-8.88,33.577
			c-20.519,37.816-25.874,69.797-27.18,86.676c-0.346,2.685-0.519,5.365-0.519,8.04c0,5.214,0.708,11.035,2.795,16.83
			c-42.469-2.214-77.359-9.158-98.397-30.1c-16.575-16.506-24.63-41.815-24.63-77.37c0-33.758,8.896-70.097,25.129-102.924
			c10.605-2.759,20.682-6.447,30.102-10.668c45.018-20.178,75.051-52.561,76.604-54.255l-9.1-8.345l-9.116-8.355
			c-0.425,0.461-43.057,46.235-99.619,58.902l-0.021,0.005v-0.005c-5.875,1.312-11.749,2.24-17.477,2.748
			c-10.883,0.971-15.132-0.346-16.406-0.917c-0.026-1.291,0.388-5.119,4.568-13.658c4.144-8.456,10.338-18.295,16.895-28.711
			c10.689-16.979,21.741-34.534,26.713-50.484C123.27,82.104,126.375,75.888,137.448,72.747z M309.429,421.196
			c-33.994,0-52.337-3.477-61.783-9.655c-5.896-3.86-8.329-8.771-8.927-14.552c-0.021-0.577-0.109-3.619,0.247-8.637
			c1.726-11.956,8.917-24.617,19.983-34.797c14.105-12.982,32.032-20.137,50.479-20.137c18.446,0,36.373,7.149,50.477,20.137
			c12.767,11.75,20.388,26.796,20.388,40.257c0,7.17-2.134,13.179-9.084,17.729C361.764,417.72,343.421,421.196,309.429,421.196z
			 M390.853,231.006c1.08-0.247,2.166-0.374,3.241-0.374c4.979,0,9.205,2.718,10.061,6.453c1.069,4.693-3.216,9.845-9.353,11.244
			c-1.075,0.247-2.166,0.368-3.241,0.368l0,0c-4.978,0-9.205-2.712-10.061-6.452C380.431,237.552,384.716,232.4,390.853,231.006z
			 M237.534,242.245c-0.85,3.74-5.083,6.452-10.06,6.452c-1.07,0-2.161-0.124-3.242-0.368c-6.136-1.4-10.422-6.545-9.352-11.244
			c0.85-3.741,5.082-6.453,10.06-6.453c1.069,0,2.161,0.127,3.241,0.374C234.319,232.4,238.604,237.552,237.534,242.245z"/>
		<path d="M259.411,402.682c0,0,43.844,2.135,41.012-24.148C297.59,352.256,254.413,360.019,259.411,402.682z"/>
		<path d="M318.392,378.533c-2.83,26.278,41.011,24.148,41.011,24.148C364.396,360.019,321.219,352.256,318.392,378.533z"/>
	</g>
</g>
</svg>
