<?xml version="1.0" encoding="utf-8"?>
<!-- Generator: Adobe Illustrator 16.0.0, SVG Export Plug-In . SVG Version: 6.00 Build 0)  -->
<!DOCTYPE svg PUBLIC "-//W3C//DTD SVG 1.1//EN" "http://www.w3.org/Graphics/SVG/1.1/DTD/svg11.dtd">
<svg version="1.1" id="Capa_1" xmlns="http://www.w3.org/2000/svg" xmlns:xlink="http://www.w3.org/1999/xlink" x="0px" y="0px"
	 width="200px" height="200px" viewBox="0 0 200 200" enable-background="new 0 0 200 200" xml:space="preserve">
<g>
	<g>
		<path fill="#7599AC" d="M101.1,47.747c33.699,0.331,54.811-1.766,57.662,35.586h41.094c0-57.865-50.465-65.664-99.826-65.664
			c-49.365,0-99.827,7.799-99.827,65.664h40.776C44.133,45.269,67.679,47.42,101.1,47.747z"/>
		<path fill="#EFEDCB" d="M20.583,101.936c10.009,0,18.337,0.599,20.189-9.247c0.249-1.338,0.393-2.855,0.393-4.609H40.69H0
			C0,102.725,9.216,101.936,20.583,101.936z"/>
		<path fill="#EFEDCB" d="M159.025,88.079h-0.385c0,1.766,0.152,3.287,0.436,4.609c1.953,9.079,10.27,8.516,20.244,8.516
			c11.422,0,20.68,0.751,20.68-13.125H159.025z"/>
		<path fill="#7599AC" d="M138.949,78.105v-5.82c0-2.603-2.999-2.766-6.703-2.766h-6.049c-3.699,0-6.698,0.163-6.698,2.766v5.014
			v3.89H76.708v-3.89v-5.014c0-2.603-2.999-2.766-6.698-2.766h-6.053c-3.699,0-6.699,0.163-6.699,2.766v5.82v5.08
			c-9.749,10.13-41.647,53.251-42.806,58.471l0.016,34.836c0,3.217,2.618,5.836,5.835,5.836h155.602
			c3.218,0,5.836-2.619,5.836-5.836v-35.01c-1.148-5.069-33.039-48.171-42.791-58.301V78.105z M74.6,146.344
			c-3.131,0-5.671-2.535-5.671-5.671s2.54-5.672,5.671-5.672c3.132,0,5.672,2.536,5.672,5.672S77.731,146.344,74.6,146.344z
			 M74.6,126.895c-3.131,0-5.671-2.537-5.671-5.672c0-3.136,2.54-5.672,5.671-5.672c3.132,0,5.672,2.536,5.672,5.672
			C80.271,124.357,77.731,126.895,74.6,126.895z M74.6,107.447c-3.131,0-5.671-2.536-5.671-5.672c0-3.131,2.54-5.671,5.671-5.671
			c3.132,0,5.672,2.541,5.672,5.671C80.271,104.911,77.731,107.447,74.6,107.447z M97.94,146.344c-3.132,0-5.672-2.535-5.672-5.671
			s2.54-5.672,5.672-5.672c3.136,0,5.671,2.536,5.671,5.672S101.076,146.344,97.94,146.344z M97.94,126.895
			c-3.132,0-5.672-2.537-5.672-5.672c0-3.136,2.54-5.672,5.672-5.672c3.136,0,5.671,2.536,5.671,5.672
			C103.611,124.357,101.076,126.895,97.94,126.895z M97.94,107.447c-3.132,0-5.672-2.536-5.672-5.672
			c0-3.131,2.54-5.671,5.672-5.671c3.136,0,5.671,2.541,5.671,5.671C103.611,104.911,101.076,107.447,97.94,107.447z
			 M121.281,146.344c-3.137,0-5.672-2.535-5.672-5.671s2.535-5.672,5.672-5.672c3.135,0,5.671,2.536,5.671,5.672
			S124.416,146.344,121.281,146.344z M121.281,126.895c-3.137,0-5.672-2.537-5.672-5.672c0-3.136,2.535-5.672,5.672-5.672
			c3.135,0,5.671,2.536,5.671,5.672C126.952,124.357,124.416,126.895,121.281,126.895z M121.281,107.447
			c-3.137,0-5.672-2.536-5.672-5.672c0-3.131,2.535-5.671,5.672-5.671c3.135,0,5.671,2.541,5.671,5.671
			C126.952,104.911,124.416,107.447,121.281,107.447z"/>
	</g>
</g>
</svg>
