<?xml version="1.0" encoding="utf-8"?>
<!-- Generator: Adobe Illustrator 16.0.0, SVG Export Plug-In . SVG Version: 6.00 Build 0)  -->
<!DOCTYPE svg PUBLIC "-//W3C//DTD SVG 1.1//EN" "http://www.w3.org/Graphics/SVG/1.1/DTD/svg11.dtd">
<svg version="1.1" id="Capa_1" xmlns="http://www.w3.org/2000/svg" xmlns:xlink="http://www.w3.org/1999/xlink" x="0px" y="0px"
	 width="510px" height="510px" viewBox="0 0 510 510" enable-background="new 0 0 510 510" xml:space="preserve">
<g>
	<g id="favorite">
		<path fill="#FC0000" d="M255,489.6L219.3,453.9C86.7,336.6,0,257.55,0,160.65C0,81.6,61.2,20.4,140.25,20.4
			c43.35,0,86.7,20.4,114.75,53.55C283.05,40.8,326.4,20.4,369.75,20.4C448.8,20.4,510,81.6,510,160.65
			c0,96.9-86.7,175.95-219.3,293.25L255,489.6z"/>
	</g>
</g>
</svg>
