<?xml version="1.0" encoding="utf-8"?>
<!-- Generator: Adobe Illustrator 16.0.0, SVG Export Plug-In . SVG Version: 6.00 Build 0)  -->
<!DOCTYPE svg PUBLIC "-//W3C//DTD SVG 1.1//EN" "http://www.w3.org/Graphics/SVG/1.1/DTD/svg11.dtd">
<svg version="1.1" id="Layer_1" xmlns="http://www.w3.org/2000/svg" xmlns:xlink="http://www.w3.org/1999/xlink" x="0px" y="0px"
	 width="200px" height="200px" viewBox="0 0 200 200" enable-background="new 0 0 200 200" xml:space="preserve">
<circle fill="#F4971C" cx="99.55" cy="98.497" r="38.218"/>
<rect x="117.836" y="30.467" transform="matrix(-0.9232 -0.3844 0.3844 -0.9232 218.0161 131.8571)" fill="#F4971C" width="8.7" height="27.344"/>
<rect x="72.573" y="139.183" transform="matrix(-0.9232 -0.3843 0.3843 -0.9232 89.1905 323.5313)" fill="#F4971C" width="8.7" height="27.342"/>
<rect x="149.567" y="107.458" transform="matrix(-0.3844 0.9232 -0.9232 -0.3844 324.9021 25.5945)" fill="#F4971C" width="8.7" height="27.345"/>
<rect x="40.845" y="62.194" transform="matrix(-0.3844 0.9232 -0.9232 -0.3844 132.6048 63.3051)" fill="#F4971C" width="8.7" height="27.344"/>
<rect x="149.634" y="62.396" transform="matrix(0.3811 0.9245 -0.9245 0.3811 165.6304 -95.2855)" fill="#F4971C" width="8.7" height="27.342"/>
<rect x="31.439" y="116.578" transform="matrix(0.9246 -0.381 0.381 0.9246 -42.6711 26.3083)" fill="#F4971C" width="27.344" height="8.699"/>
<rect x="108.302" y="148.585" transform="matrix(-0.381 -0.9246 0.9246 -0.381 27.0407 323.9734)" fill="#F4971C" width="27.343" height="8.7"/>
<rect x="63.441" y="39.71" transform="matrix(-0.381 -0.9246 0.9246 -0.381 65.7572 132.1433)" fill="#F4971C" width="27.344" height="8.7"/>
<rect x="124.529" y="45.326" transform="matrix(0.7068 -0.7074 0.7074 0.7068 8.3522 119.5038)" fill="#F4971C" width="47.629" height="8.7"/>
<rect x="124.554" y="142.937" transform="matrix(0.7074 0.7068 -0.7068 0.7074 147.516 -61.7727)" fill="#F4971C" width="47.63" height="8.701"/>
<rect x="26.946" y="142.98" transform="matrix(0.7068 -0.7074 0.7074 0.7068 -89.3393 79.1033)" fill="#F4971C" width="47.628" height="8.699"/>
<rect x="26.913" y="45.358" transform="matrix(-0.7074 -0.7068 0.7068 -0.7074 51.478 120.726)" fill="#F4971C" width="47.629" height="8.7"/>
<polyline fill="#F4971C" points="192.387,94.111 144.758,94.129 144.762,102.83 192.391,102.812 "/>
<polyline fill="#F4971C" points="103.936,191.334 103.918,143.705 95.218,143.708 95.236,191.337 "/>
<rect x="6.712" y="94.173" fill="#F4971C" width="47.629" height="8.7"/>
<rect x="75.709" y="25.123" transform="matrix(-3.691157e-04 -1 1 -3.691157e-04 70.088 129.0074)" fill="#F4971C" width="47.629" height="8.7"/>
</svg>
